{
  "services":
  [
    {
      "type": 0,
      "title": "EXO-L",
      "packageUrl": "com.smtown.exo_fanclub.androidapp",
      "image": {
        "title": "good",
        "imageUrl": "http://52.198.212.207:3333/images/app_exol.png",
        "width": 136,
        "height": 136
      }
    },
    {
      "type": 0,
      "title": "SMTOWN THEATRE",
      "packageUrl": "com.smtown.artium",
      "image": {
        "title": "good",
        "imageUrl": "http://52.198.212.207:3333/images/app_theatre.png",
        "width": 136,
        "height": 136
      }
    },
    {
      "type": 0,
      "title": "FAN BOOK",
      "packageUrl": "com.smtown.fanbook_android",
      "image": {
        "title": "good",
        "imageUrl": "http://52.198.212.207:3333/images/app_fanbook.png",
        "width": 136,
        "height": 136
      }
    },
    {
      "type": 0,
      "title": "EVERY SING",
      "packageUrl": "com.sm1.EverySing",
      "image": {
        "title": "good",
        "imageUrl": "http://52.198.212.207:3333/images/app_everysing.png",
        "width": 136,
        "height": 136
      }
    },
    {
      "type": 0,
      "title": "EVERY SHOT",
      "packageUrl": "com.smtown.everyshot.androidapp",
      "image": {
        "title": "good",
        "imageUrl": "http://52.198.212.207:3333/images/app_everyshot.png",
        "width": 136,
        "height": 136
      }
    },
    {
      "type": 0,
      "title": "Vyrl",
      "packageUrl": "com.smtown.vyrl",
      "image": {
        "title": "good",
        "imageUrl": "http://52.198.212.207:3333/images/app_vyrl.png",
        "width": 136,
        "height": 136
      }
    },
    {
      "type": 0,
      "title": "SMT Seoul",
      "packageUrl": "kr.co.hellofactory.smt.client",
      "image": {
        "title": "good",
        "imageUrl": "http://52.198.212.207:3333/images/app_smt.png",
        "width": 136,
        "height": 136
      }
    },
    {
      "type": 0,
      "title": "Dice SuperStar with SMTOWN",
      "packageUrl": "com.polygongames.worldtour",
      "image": {
        "title": "good",
        "imageUrl": "http://52.198.212.207:3333/images/app_superstarsmtown.png",
        "width": 136,
        "height": 136
      }
    },
    {
      "type": 0,
      "title": "EXO RUN",
      "packageUrl": "kr.co.putto.exorun",
      "image": {
        "title": "good",
        "imageUrl": "http://52.198.212.207:3333/images/app_exorun.png",
        "width": 136,
        "height": 136
      }
    },
    {
      "type": 0,
      "title": "SMTOWN",
      "packageUrl": "com.smtown.artium",
      "image": {
        "title": "good",
        "imageUrl": "http://52.198.212.207:3333/images/app_superstarsmtown.png",
        "width": 136,
        "height": 136
      }
    }
  ]
}