{
  "1.jpg": {
    "width": 600,
    "height": 617
  },
  "10.jpg": {
    "width": 530,
    "height": 716
  },
  "11.jpg": {
    "width": 1000,
    "height": 620
  },
  "12.jpg": {
    "width": 194,
    "height": 259
  },
  "13.jpg": {
    "width": 426,
    "height": 623
  },
  "14.jpg": {
    "width": 300,
    "height": 168
  },
  "15.jpg": {
    "width": 736,
    "height": 982
  },
  "16.png": {
    "width": 225,
    "height": 225
  },
  "17.png": {
    "width": 225,
    "height": 224
  },
  "18.jpg": {
    "width": 665,
    "height": 960
  },
  "19.jpg": {
    "width": 483,
    "height": 750
  },
  "2.png": {
    "width": 480,
    "height": 480
  },
  "20.jpg": {
    "width": 700,
    "height": 467
  },
  "21.jpg": {
    "width": 229,
    "height": 220
  },
  "22.jpg": {
    "width": 550,
    "height": 439
  },
  "23.jpg": {
    "width": 1024,
    "height": 697
  },
  "24.jpg": {
    "width": 288,
    "height": 175
  },
  "25.jpg": {
    "width": 225,
    "height": 225
  },
  "26.jpg": {
    "width": 259,
    "height": 194
  },
  "27.jpg": {
    "width": 275,
    "height": 183
  },
  "28.jpg": {
    "width": 540,
    "height": 510
  },
  "29.jpg": {
    "width": 600,
    "height": 600
  },
  "3.jpg": {
    "width": 1000,
    "height": 667
  },
  "30.jpg": {
    "width": 225,
    "height": 225
  },
  "4.png": {
    "width": 700,
    "height": 388
  },
  "5.jpg": {
    "width": 610,
    "height": 413
  },
  "6.jpg": {
    "width": 700,
    "height": 407
  },
  "7.png": {
    "width": 750,
    "height": 550
  },
  "8.jpg": {
    "width": 540,
    "height": 810
  },
  "9.jpg": {
    "width": 280,
    "height": 180
  }
}
